Lab10/pm.vcd
$date
	Sun Nov  3 19:26:10 2019
$end
$version
	Icarus Verilog
$end
$timescale
	1s
$end
$scope module test $end
$var wire 32 ! PC [31:0] $end
$var reg 1 " clk $end
$var reg 1 # done $end
$var reg 1 $ reset $end
$var integer 32 % i [31:0] $end
$scope module pm $end
$var wire 1 & PCSrc $end
$var wire 1 " clk $end
$var wire 1 ' flush $end
$var wire 1 ( forward_A $end
$var wire 1 ) forward_B $end
$var wire 1 $ reset $end
$var wire 1 * stall $end
$var wire 1 + zero $end
$var wire 5 , wr_regnum_MW [4:0] $end
$var wire 5 - wr_regnum [4:0] $end
$var wire 32 . wr_data [31:0] $end
$var wire 5 / rt [4:0] $end
$var wire 5 0 rs [4:0] $end
$var wire 32 1 rd2_data_B_MW [31:0] $end
$var wire 32 2 rd2_data_B [31:0] $end
$var wire 32 3 rd2_data [31:0] $end
$var wire 32 4 rd1_data [31:0] $end
$var wire 5 5 rd [4:0] $end
$var wire 6 6 opcode [5:0] $end
$var wire 30 7 next_PC [31:2] $end
$var wire 32 8 load_data [31:0] $end
$var wire 32 9 inst_IF [31:0] $end
$var wire 32 : inst [31:0] $end
$var wire 32 ; imm [31:0] $end
$var wire 6 < funct [5:0] $end
$var wire 32 = alu_out_data_MW [31:0] $end
$var wire 32 > alu_out_data [31:0] $end
$var wire 1 ? RegWrite_MW $end
$var wire 1 @ RegWrite $end
$var wire 1 A RegDst $end
$var wire 30 B PC_target [31:2] $end
$var wire 30 C PC_plus4_DE [29:0] $end
$var wire 30 D PC_plus4 [31:2] $end
$var wire 32 E PC [31:0] $end
$var wire 1 F MemWrite_MW $end
$var wire 1 G MemWrite $end
$var wire 1 H MemToReg_MW $end
$var wire 1 I MemToReg $end
$var wire 1 J MemRead_MW $end
$var wire 1 K MemRead $end
$var wire 32 L B_data [31:0] $end
$var wire 1 M BEQ $end
$var wire 32 N A_data [31:0] $end
$var wire 1 O ALUSrc $end
$var wire 3 P ALUOp [2:0] $end
$scope module DE_reg3 $end
$var wire 1 " clk $end
$var wire 1 Q enable $end
$var wire 1 $ reset $end
$var wire 32 R d [31:0] $end
$var reg 32 S q [31:0] $end
$upscope $end
$scope module DE_reg4 $end
$var wire 1 " clk $end
$var wire 1 T enable $end
$var wire 1 $ reset $end
$var wire 32 U d [31:0] $end
$var reg 32 V q [31:0] $end
$upscope $end
$scope module DE_reg5 $end
$var wire 1 " clk $end
$var wire 1 W enable $end
$var wire 1 $ reset $end
$var wire 5 X d [4:0] $end
$var reg 5 Y q [4:0] $end
$upscope $end
$scope module DE_reg_decode_1 $end
$var wire 1 " clk $end
$var wire 1 Z enable $end
$var wire 1 $ reset $end
$var wire 1 @ d $end
$var reg 1 ? q $end
$upscope $end
$scope module DE_reg_decode_2 $end
$var wire 1 " clk $end
$var wire 1 [ enable $end
$var wire 1 $ reset $end
$var wire 1 K d $end
$var reg 1 J q $end
$upscope $end
$scope module DE_reg_decode_6 $end
$var wire 1 " clk $end
$var wire 1 \ enable $end
$var wire 1 $ reset $end
$var wire 1 I d $end
$var reg 1 H q $end
$upscope $end
$scope module DE_reg_decode_7 $end
$var wire 1 " clk $end
$var wire 1 ] enable $end
$var wire 1 $ reset $end
$var wire 1 G d $end
$var reg 1 F q $end
$upscope $end
$scope module IF_reg1 $end
$var wire 1 " clk $end
$var wire 1 ^ enable $end
$var wire 1 ' reset $end
$var wire 30 _ d [29:0] $end
$var reg 30 ` q [29:0] $end
$upscope $end
$scope module IF_reg2 $end
$var wire 1 " clk $end
$var wire 1 a enable $end
$var wire 1 ' reset $end
$var wire 32 b d [31:0] $end
$var reg 32 c q [31:0] $end
$upscope $end
$scope module PC_reg $end
$var wire 1 " clk $end
$var wire 1 d enable $end
$var wire 1 $ reset $end
$var wire 30 e d [29:0] $end
$var reg 30 f q [29:0] $end
$upscope $end
$scope module alu $end
$var wire 32 g out [31:0] $end
$var wire 1 + zero $end
$var wire 32 h inB [31:0] $end
$var wire 32 i inA [31:0] $end
$var wire 3 j control [2:0] $end
$upscope $end
$scope module branch_mux $end
$var wire 30 k out [29:0] $end
$var wire 1 & sel $end
$var wire 30 l temp1 [29:0] $end
$var wire 30 m temp2 [29:0] $end
$var wire 30 n B [29:0] $end
$var wire 30 o A [29:0] $end
$upscope $end
$scope module data_memory $end
$var wire 32 p addr [31:0] $end
$var wire 1 " clk $end
$var wire 32 q d_out [31:0] $end
$var wire 32 r data_in [31:0] $end
$var wire 32 s data_out [31:0] $end
$var wire 32 t internal_data_in [31:0] $end
$var wire 1 J mem_read $end
$var wire 1 F mem_write $end
$var wire 1 $ reset $end
$var wire 1 u valid_address $end
$var wire 19 v index [18:0] $end
$var integer 32 w i [31:0] $end
$upscope $end
$scope module decode $end
$var wire 1 O ALUSrc $end
$var wire 1 I MemToReg $end
$var wire 1 A RegDst $end
$var wire 1 @ RegWrite $end
$var wire 6 x funct [5:0] $end
$var wire 1 y nop $end
$var wire 6 z opcode [5:0] $end
$var wire 1 { op0 $end
$var wire 1 G MemWrite $end
$var wire 1 K MemRead $end
$var wire 1 M BEQ $end
$var wire 3 | ALUOp [2:0] $end
$upscope $end
$scope module imem $end
$var wire 30 } addr [29:0] $end
$var wire 32 ~ data [31:0] $end
$var reg 32 !" i [31:0] $end
$upscope $end
$scope module imm_mux $end
$var wire 32 "" B [31:0] $end
$var wire 32 #" out [31:0] $end
$var wire 1 O sel $end
$var wire 32 $" temp1 [31:0] $end
$var wire 32 %" temp2 [31:0] $end
$var wire 32 &" A [31:0] $end
$upscope $end
$scope module mux_A $end
$var wire 32 '" B [31:0] $end
$var wire 32 (" out [31:0] $end
$var wire 1 ( sel $end
$var wire 32 )" temp1 [31:0] $end
$var wire 32 *" temp2 [31:0] $end
$var wire 32 +" A [31:0] $end
$upscope $end
$scope module mux_B $end
$var wire 32 ," B [31:0] $end
$var wire 32 -" out [31:0] $end
$var wire 1 ) sel $end
$var wire 32 ." temp1 [31:0] $end
$var wire 32 /" temp2 [31:0] $end
$var wire 32 0" A [31:0] $end
$upscope $end
$scope module next_PC_adder $end
$var wire 30 1" in1 [29:0] $end
$var wire 30 2" in2 [29:0] $end
$var wire 30 3" out [29:0] $end
$upscope $end
$scope module rd_mux $end
$var wire 5 4" A [4:0] $end
$var wire 5 5" B [4:0] $end
$var wire 5 6" out [4:0] $end
$var wire 1 A sel $end
$var wire 5 7" temp1 [4:0] $end
$var wire 5 8" temp2 [4:0] $end
$upscope $end
$scope module rf $end
$var wire 1 " clock $end
$var wire 32 9" internal_rdData [31:0] $end
$var wire 5 :" rdNum [4:0] $end
$var wire 1 ? rdWriteEnable $end
$var wire 1 $ reset $end
$var wire 32 ;" rsData [31:0] $end
$var wire 5 <" rsNum [4:0] $end
$var wire 32 =" rtData [31:0] $end
$var wire 5 >" rtNum [4:0] $end
$var wire 32 ?" rdData [31:0] $end
$var integer 32 @" i [31:0] $end
$upscope $end
$scope module target_PC_adder $end
$var wire 30 A" in1 [29:0] $end
$var wire 30 B" in2 [29:0] $end
$var wire 30 C" out [29:0] $end
$upscope $end
$scope module wb_mux $end
$var wire 32 D" A [31:0] $end
$var wire 32 E" B [31:0] $end
$var wire 32 F" out [31:0] $end
$var wire 1 H sel $end
$var wire 32 G" temp1 [31:0] $end
$var wire 32 H" temp2 [31:0] $end
$upscope $end
$upscope $end
$upscope $end
$scope module test $end
$scope module pm $end
$scope module rf $end
$var reg 32 I" \r[0] [31:0] $end
$upscope $end
$upscope $end
$upscope $end
$scope module test $end
$scope module pm $end
$scope module rf $end
$var reg 32 J" \r[1] [31:0] $end
$upscope $end
$upscope $end
$upscope $end
$scope module test $end
$scope module pm $end
$scope module rf $end
$var reg 32 K" \r[2] [31:0] $end
$upscope $end
$upscope $end
$upscope $end
$scope module test $end
$scope module pm $end
$scope module rf $end
$var reg 32 L" \r[3] [31:0] $end
$upscope $end
$upscope $end
$upscope $end
$scope module test $end
$scope module pm $end
$scope module rf $end
$var reg 32 M" \r[4] [31:0] $end
$upscope $end
$upscope $end
$upscope $end
$scope module test $end
$scope module pm $end
$scope module rf $end
$var reg 32 N" \r[5] [31:0] $end
$upscope $end
$upscope $end
$upscope $end
$scope module test $end
$scope module pm $end
$scope module rf $end
$var reg 32 O" \r[6] [31:0] $end
$upscope $end
$upscope $end
$upscope $end
$scope module test $end
$scope module pm $end
$scope module rf $end
$var reg 32 P" \r[7] [31:0] $end
$upscope $end
$upscope $end
$upscope $end
$scope module test $end
$scope module pm $end
$scope module rf $end
$var reg 32 Q" \r[8] [31:0] $end
$upscope $end
$upscope $end
$upscope $end
$scope module test $end
$scope module pm $end
$scope module rf $end
$var reg 32 R" \r[9] [31:0] $end
$upscope $end
$upscope $end
$upscope $end
$scope module test $end
$scope module pm $end
$scope module rf $end
$var reg 32 S" \r[10] [31:0] $end
$upscope $end
$upscope $end
$upscope $end
$scope module test $end
$scope module pm $end
$scope module rf $end
$var reg 32 T" \r[11] [31:0] $end
$upscope $end
$upscope $end
$upscope $end
$scope module test $end
$scope module pm $end
$scope module rf $end
$var reg 32 U" \r[12] [31:0] $end
$upscope $end
$upscope $end
$upscope $end
$scope module test $end
$scope module pm $end
$scope module rf $end
$var reg 32 V" \r[13] [31:0] $end
$upscope $end
$upscope $end
$upscope $end
$scope module test $end
$scope module pm $end
$scope module rf $end
$var reg 32 W" \r[14] [31:0] $end
$upscope $end
$upscope $end
$upscope $end
$scope module test $end
$scope module pm $end
$scope module rf $end
$var reg 32 X" \r[15] [31:0] $end
$upscope $end
$upscope $end
$upscope $end
$scope module test $end
$scope module pm $end
$scope module rf $end
$var reg 32 Y" \r[16] [31:0] $end
$upscope $end
$upscope $end
$upscope $end
$scope module test $end
$scope module pm $end
$scope module rf $end
$var reg 32 Z" \r[17] [31:0] $end
$upscope $end
$upscope $end
$upscope $end
$scope module test $end
$scope module pm $end
$scope module rf $end
$var reg 32 [" \r[18] [31:0] $end
$upscope $end
$upscope $end
$upscope $end
$scope module test $end
$scope module pm $end
$scope module rf $end
$var reg 32 \" \r[19] [31:0] $end
$upscope $end
$upscope $end
$upscope $end
$scope module test $end
$scope module pm $end
$scope module rf $end
$var reg 32 ]" \r[20] [31:0] $end
$upscope $end
$upscope $end
$upscope $end
$scope module test $end
$scope module pm $end
$scope module rf $end
$var reg 32 ^" \r[21] [31:0] $end
$upscope $end
$upscope $end
$upscope $end
$scope module test $end
$scope module pm $end
$scope module rf $end
$var reg 32 _" \r[22] [31:0] $end
$upscope $end
$upscope $end
$upscope $end
$scope module test $end
$scope module pm $end
$scope module rf $end
$var reg 32 `" \r[23] [31:0] $end
$upscope $end
$upscope $end
$upscope $end
$scope module test $end
$scope module pm $end
$scope module rf $end
$var reg 32 a" \r[24] [31:0] $end
$upscope $end
$upscope $end
$upscope $end
$scope module test $end
$scope module pm $end
$scope module rf $end
$var reg 32 b" \r[25] [31:0] $end
$upscope $end
$upscope $end
$upscope $end
$scope module test $end
$scope module pm $end
$scope module rf $end
$var reg 32 c" \r[26] [31:0] $end
$upscope $end
$upscope $end
$upscope $end
$scope module test $end
$scope module pm $end
$scope module rf $end
$var reg 32 d" \r[27] [31:0] $end
$upscope $end
$upscope $end
$upscope $end
$scope module test $end
$scope module pm $end
$scope module rf $end
$var reg 32 e" \r[28] [31:0] $end
$upscope $end
$upscope $end
$upscope $end
$scope module test $end
$scope module pm $end
$scope module rf $end
$var reg 32 f" \r[29] [31:0] $end
$upscope $end
$upscope $end
$upscope $end
$scope module test $end
$scope module pm $end
$scope module rf $end
$var reg 32 g" \r[30] [31:0] $end
$upscope $end
$upscope $end
$upscope $end
$scope module test $end
$scope module pm $end
$scope module rf $end
$var reg 32 h" \r[31] [31:0] $end
$upscope $end
$upscope $end
$upscope $end
$enddefinitions $end
#0
$dumpvars
b10000000000010000000000000000 h"
b10000000000010000000000000000 g"
b10000000000010000000000000000 f"
b10000000000010000000000000000 e"
b10000000000010000000000000000 d"
b10000000000010000000000000000 c"
b10000000000010000000000000000 b"
b10000000000010000000000000000 a"
b10000000000010000000000000000 `"
b10000000000010000000000000000 _"
b10000000000010000000000000000 ^"
b10000000000010000000000000000 ]"
b10000000000010000000000000000 \"
b10000000000010000000000000000 ["
b10000000000010000000000000000 Z"
b10000000000010000000000000000 Y"
b10000000000010000000000000000 X"
b10000000000010000000000000000 W"
b10000000000010000000000000000 V"
b10000000000010000000000000000 U"
b10000000000010000000000000000 T"
b10000000000010000000000000000 S"
b10000000000010000000000000000 R"
b10000000000010000000000000000 Q"
b10000000000010000000000000000 P"
b10000000000010000000000000000 O"
b10000000000010000000000000000 N"
b10000000000010000000000000000 M"
b10000000000010000000000000000 L"
b10000000000010000000000000000 K"
b10000000000010000000000000000 J"
b0 I"
bx H"
bx G"
bx F"
bx E"
bx D"
bx C"
bx B"
bx A"
b100000 @"
bx ?"
bx >"
bx ="
bx <"
bx ;"
bx :"
bx 9"
bx 8"
bx 7"
bx 6"
bx 5"
bx 4"
bx 3"
b1 2"
bx 1"
bx 0"
bx /"
bx ."
bx -"
bx ,"
bx +"
bx *"
bx )"
bx ("
bx '"
bx &"
bx %"
bx $"
bx #"
bx ""
b100000000 !"
bx ~
bx }
bx |
x{
bx z
xy
bx x
b1000000000000000000 w
bx v
xu
bx t
bx s
bx r
bx q
bx p
bx o
bx n
bx m
bx l
bx k
bx j
bx i
bx h
bx g
bx f
bx e
xd
bx c
bx b
xa
bx `
bx _
x^
1]
1\
1[
1Z
bx Y
bx X
1W
bx V
bx U
1T
bx S
bx R
1Q
bx P
xO
bx N
xM
bx L
xK
xJ
xI
xH
xG
xF
bx00 E
bx D
bx C
bx B
xA
x@
x?
bx >
bx =
bx <
bx ;
bx :
bx 9
bx 8
bx 7
bx 6
bx 5
bx 4
bx 3
bx 2
bx 1
bx 0
bx /
bx .
bx -
bx ,
x+
x*
x)
x(
1'
x&
b100000 %
1$
0#
0"
bx00 !
$end
#6
b0 -
b0 X
b0 6"
b0 8"
b0 7"
b0 B"
b0 %"
0)
0(
1a
1^
1d
b11011110101011011011111011101111 q
b0 v
b0 .
b0 ?"
b0 F"
b100000000000000000000 1"
b100000000000000000000 }
b0 <
b0 x
1{
b0 6
b0 z
b0 5
b0 5"
b0 /
b0 4"
b0 >"
b0 0
b0 <"
b0 ;
b0 ""
0*
b0 H"
0u
b0 *"
b0 /"
b0 G"
b10000000000000000000000 E
b10000000000000000000000 !
b100000000000000000000 f
b0 C
b0 `
b0 A"
b0 :
b0 c
0?
0J
0H
0F
b0 =
b0 S
b0 p
b0 '"
b0 ,"
b0 D"
b0 1
b0 V
b0 r
b0 ,
b0 Y
b0 :"
1"
#7
b0 L
b0 h
b0 #"
b0 $"
b0 2
b0 U
b0 &"
b0 -"
b0 N
b0 i
b0 ("
b0 ."
b0 )"
x'
b0 9"
b0 3
b0 0"
b0 ="
b0 4
b0 +"
b0 ;"
0$
#8
0@
b100000000000000000001 7
b100000000000000000001 e
b100000000000000000001 k
0'
b0 m
b100000000000000000001 l
0&
1A
0O
1+
b0 P
b0 j
b0 |
1y
b0 B
b0 n
b0 C"
b100000000000000000001 D
b100000000000000000001 _
b100000000000000000001 o
b100000000000000000001 3"
0M
0I
0K
0G
#9
b0 >
b0 R
b0 g
b10001110100000100000000000000000 9
b10001110100000100000000000000000 b
b10001110100000100000000000000000 ~
b0 8
b0 s
b0 E"
b0 t
#12
0"
#18
0{
b100011 6
b100011 z
b10 /
b10 4"
b10 >"
b10100 0
b10100 <"
b100000000000000000001 1"
b100000000000000000001 }
b10001110100000100000000000000000 :
b10001110100000100000000000000000 c
b100000000000000000001 C
b100000000000000000001 `
b100000000000000000001 A"
b10000000000000000000100 E
b10000000000000000000100 !
b100000000000000000001 f
1"
#19
b10000000000010000000000000000 L
b10000000000010000000000000000 h
b10000000000010000000000000000 #"
b10000000000010000000000000000 $"
b10000000000010000000000000000 2
b10000000000010000000000000000 U
b10000000000010000000000000000 &"
b10000000000010000000000000000 -"
b10000000000010000000000000000 N
b10000000000010000000000000000 i
b10000000000010000000000000000 ("
b10000000000010000000000000000 ."
b10000000000010000000000000000 )"
b10000000000010000000000000000 3
b10000000000010000000000000000 0"
b10000000000010000000000000000 ="
b10000000000010000000000000000 4
b10000000000010000000000000000 +"
b10000000000010000000000000000 ;"
#20
b10 -
b10 X
b10 6"
b0 L
b0 h
b0 #"
1@
b10 7"
b0 $"
b100000000000000000010 7
b100000000000000000010 e
b100000000000000000010 k
0A
1O
b100000000000000000010 l
0y
1I
1K
b100000000000000000010 D
b100000000000000000010 _
b100000000000000000010 o
b100000000000000000010 3"
b100000000000000000001 B
b100000000000000000001 n
b100000000000000000001 C"
#21
0+
b10001110100000110000000000000100 9
b10001110100000110000000000000100 b
b10001110100000110000000000000100 ~
#22
b10000000000010000000000000000 >
b10000000000010000000000000000 R
b10000000000010000000000000000 g
#24
0"
#30
b11 -
b11 X
b11 6"
b100 L
b100 h
b100 #"
b10000000000010000000000000000 ."
b0 /"
b11 7"
b100 B"
b100 %"
b1 q
b100000000000000 v
0)
b100000000000000000010 1"
b100000000000000000010 }
b100 <
b100 x
b11 /
b11 4"
b11 >"
b100 ;
b100 ""
1u
b10000000000000000001000 E
b10000000000000000001000 !
b100000000000000000010 f
b100000000000000000010 C
b100000000000000000010 `
b100000000000000000010 A"
b10001110100000110000000000000100 :
b10001110100000110000000000000100 c
1?
1J
1H
b10000000000010000000000000000 =
b10000000000010000000000000000 S
b10000000000010000000000000000 p
b10000000000010000000000000000 '"
b10000000000010000000000000000 ,"
b10000000000010000000000000000 D"
b10000000000010000000000000000 1
b10000000000010000000000000000 V
b10000000000010000000000000000 r
b10 ,
b10 Y
b10 :"
1"
#32
b100000000000000000011 7
b100000000000000000011 e
b100000000000000000011 k
b100000000000000000011 l
b10000000000010000000000000100 >
b10000000000010000000000000100 R
b10000000000010000000000000100 g
b100000000000000000011 D
b100000000000000000011 _
b100000000000000000011 o
b100000000000000000011 3"
b100000000000000000110 B
b100000000000000000110 n
b100000000000000000110 C"
#33
b1 .
b1 ?"
b1 F"
b1 H"
b10001110100001000000000000001000 9
b10001110100001000000000000001000 b
b10001110100001000000000000001000 ~
b1 8
b1 s
b1 E"
b10000000000010000000000000000 t
#34
b1 9"
#36
0"
#42
b100 -
b100 X
b100 6"
b1000 L
b1000 h
b1000 #"
b11111111 q
b100000000000001 v
b100 7"
b1000 B"
b1000 %"
b1000 <
b1000 x
b100 /
b100 4"
b100 >"
b1000 ;
b1000 ""
b100000000000000000011 1"
b100000000000000000011 }
b11 ,
b11 Y
b11 :"
b10000000000010000000000000100 =
b10000000000010000000000000100 S
b10000000000010000000000000100 p
b10000000000010000000000000100 '"
b10000000000010000000000000100 ,"
b10000000000010000000000000100 D"
b10001110100001000000000000001000 :
b10001110100001000000000000001000 c
b100000000000000000011 C
b100000000000000000011 `
b100000000000000000011 A"
b1 K"
b10000000000000000001100 E
b10000000000000000001100 !
b100000000000000000011 f
1"
#44
b100000000000000000100 7
b100000000000000000100 e
b100000000000000000100 k
b100000000000000000100 l
b10000000000010000000000001000 >
b10000000000010000000000001000 R
b10000000000010000000000001000 g
b100000000000000000100 D
b100000000000000000100 _
b100000000000000000100 o
b100000000000000000100 3"
b100000000000000001011 B
b100000000000000001011 n
b100000000000000001011 C"
#45
b11111111 .
b11111111 ?"
b11111111 F"
b11111111 H"
b11111111 8
b11111111 s
b11111111 E"
b10001110100001010000000000001100 9
b10001110100001010000000000001100 b
b10001110100001010000000000001100 ~
#46
b11111111 9"
#48
0"
#54
b10000000000010000000000000000 2
b10000000000010000000000000000 U
b10000000000010000000000000000 &"
b10000000000010000000000000000 -"
b101 -
b101 X
b101 6"
b1100 L
b1100 h
b1100 #"
b10000000000010000000000000000 ."
b0 /"
b101 7"
b1100 B"
b1100 %"
b10000000000 q
b100000000000010 v
0)
b100000000000000000100 1"
b100000000000000000100 }
b1100 <
b1100 x
b101 /
b101 4"
b101 >"
b1100 ;
b1100 ""
b10000000000000000010000 E
b10000000000000000010000 !
b100000000000000000100 f
b11111111 L"
b100000000000000000100 C
b100000000000000000100 `
b100000000000000000100 A"
b10001110100001010000000000001100 :
b10001110100001010000000000001100 c
b10000000000010000000000001000 =
b10000000000010000000000001000 S
b10000000000010000000000001000 p
b10000000000010000000000001000 '"
b10000000000010000000000001000 ,"
b10000000000010000000000001000 D"
b100 ,
b100 Y
b100 :"
1"
#56
b100000000000000000101 7
b100000000000000000101 e
b100000000000000000101 k
b100000000000000000101 l
b10000000000010000000000001100 >
b10000000000010000000000001100 R
b10000000000010000000000001100 g
b100000000000000000101 D
b100000000000000000101 _
b100000000000000000101 o
b100000000000000000101 3"
b100000000000000010000 B
b100000000000000010000 n
b100000000000000010000 C"
#57
b10000000000 .
b10000000000 ?"
b10000000000 F"
b10000000000 H"
b10000000000 8
b10000000000 s
b10000000000 E"
b10001110100001100000000000010000 9
b10001110100001100000000000010000 b
b10001110100001100000000000010000 ~
#58
b10000000000 9"
#60
0"
#66
b110 -
b110 X
b110 6"
b10000 L
b10000 h
b10000 #"
b1100100 q
b100000000000011 v
b110 7"
b10000 B"
b10000 %"
b10000 <
b10000 x
b110 /
b110 4"
b110 >"
b10000 ;
b10000 ""
b100000000000000000101 1"
b100000000000000000101 }
b101 ,
b101 Y
b101 :"
b10000000000010000000000001100 =
b10000000000010000000000001100 S
b10000000000010000000000001100 p
b10000000000010000000000001100 '"
b10000000000010000000000001100 ,"
b10000000000010000000000001100 D"
b10001110100001100000000000010000 :
b10001110100001100000000000010000 c
b100000000000000000101 C
b100000000000000000101 `
b100000000000000000101 A"
b10000000000 M"
b10000000000000000010100 E
b10000000000000000010100 !
b100000000000000000101 f
1"
#68
b100000000000000000110 7
b100000000000000000110 e
b100000000000000000110 k
b100000000000000000110 l
b10000000000010000000000010000 >
b10000000000010000000000010000 R
b10000000000010000000000010000 g
b100000000000000000110 D
b100000000000000000110 _
b100000000000000000110 o
b100000000000000000110 3"
b100000000000000010101 B
b100000000000000010101 n
b100000000000000010101 C"
#69
b1100100 .
b1100100 ?"
b1100100 F"
b1100100 H"
b1100100 8
b1100100 s
b1100100 E"
b10000100011100000100000 9
b10000100011100000100000 b
b10000100011100000100000 ~
#70
b1100100 9"
#72
0"
#78
b10000000000010000000000000000 2
b10000000000010000000000000000 U
b10000000000010000000000000000 &"
b10000000000010000000000000000 -"
b10 -
b10 X
b10 6"
b11100000100000 L
b11100000100000 h
b11100000100000 #"
b10000000000010000000000000000 ."
b0 /"
b10 7"
b11100000100000 B"
b11100000100000 %"
b11001000 q
b100000000000100 v
0)
b100000000000000000110 1"
b100000000000000000110 }
b100000 <
b100000 x
1{
b0 6
b0 z
b111 5
b111 5"
b10 /
b10 4"
b10 >"
b10 0
b10 <"
b11100000100000 ;
b11100000100000 ""
b10000000000000000011000 E
b10000000000000000011000 !
b100000000000000000110 f
b1100100 N"
b100000000000000000110 C
b100000000000000000110 `
b100000000000000000110 A"
b10000100011100000100000 :
b10000100011100000100000 c
b10000000000010000000000010000 =
b10000000000010000000000010000 S
b10000000000010000000000010000 p
b10000000000010000000000010000 '"
b10000000000010000000000010000 ,"
b10000000000010000000000010000 D"
b110 ,
b110 Y
b110 :"
1"
#79
b1 2
b1 U
b1 &"
b1 -"
b1 N
b1 i
b1 ("
b1 ."
b1 )"
b1 3
b1 0"
b1 ="
b1 4
b1 +"
b1 ;"
#80
b111 -
b111 X
b111 6"
b1 L
b1 h
b1 #"
b100000000000000000111 7
b100000000000000000111 e
b100000000000000000111 k
b0 7"
b111 8"
b1 $"
b0 %"
b100000000000000000111 l
1A
0O
b100000000000000000111 D
b100000000000000000111 _
b100000000000000000111 o
b100000000000000000111 3"
0I
0K
b100000011100000100110 B
b100000011100000100110 n
b100000011100000100110 C"
#81
b11001000 .
b11001000 ?"
b11001000 F"
b11001000 H"
1+
b11001000 8
b11001000 s
b11001000 E"
b100000110100000000100000 9
b100000110100000000100000 b
b100000110100000000100000 ~
#82
b11001000 9"
b10 >
b10 R
b10 g
#84
0"
#90
b1000 -
b1000 X
b1000 6"
b11011110101011011011111011101111 q
b0 v
b10 .
b10 ?"
b10 F"
b1000 8"
b100000000100000 B"
0u
b10 G"
b0 H"
b1000 5
b1000 5"
b11 /
b11 4"
b11 >"
b100 0
b100 <"
b100000000100000 ;
b100000000100000 ""
b100000000000000000111 1"
b100000000000000000111 }
b111 ,
b111 Y
b111 :"
b1 1
b1 V
b1 r
b10 =
b10 S
b10 p
b10 '"
b10 ,"
b10 D"
0H
0J
b100000110100000000100000 :
b100000110100000000100000 c
b100000000000000000111 C
b100000000000000000111 `
b100000000000000000111 A"
b11001000 O"
b10000000000000000011100 E
b10000000000000000011100 !
b100000000000000000111 f
1"
#91
b11111111 L
b11111111 h
b11111111 #"
b11111111 $"
b11111111 2
b11111111 U
b11111111 &"
b11111111 -"
b10000000000 N
b10000000000 i
b10000000000 ("
b11111111 ."
b10000000000 )"
b10 9"
b11111111 3
b11111111 0"
b11111111 ="
b10000000000 4
b10000000000 +"
b10000000000 ;"
#92
b100000000000000001000 7
b100000000000000001000 e
b100000000000000001000 k
b100000000000000001000 l
0+
b100000000000000001000 D
b100000000000000001000 _
b100000000000000001000 o
b100000000000000001000 3"
b100000100000000100111 B
b100000100000000100111 n
b100000100000000100111 C"
#93
b10011111111 >
b10011111111 R
b10011111111 g
b101000000100100000100010 9
b101000000100100000100010 b
b101000000100100000100010 ~
b0 8
b0 s
b0 E"
b1 t
#96
0"
#102
b1001 -
b1001 X
b1001 6"
b1001 8"
b100100000100010 B"
b100111111 v
b10011111111 .
b10011111111 ?"
b10011111111 F"
b100000000000000001000 1"
b100000000000000001000 }
b100010 <
b100010 x
b1001 5
b1001 5"
b0 /
b0 4"
b0 >"
b101 0
b101 <"
b100100000100010 ;
b100100000100010 ""
b10011111111 G"
b10000000000000000100000 E
b10000000000000000100000 !
b100000000000000001000 f
b10 P"
b100000000000000001000 C
b100000000000000001000 `
b100000000000000001000 A"
b101000000100100000100010 :
b101000000100100000100010 c
b10011111111 =
b10011111111 S
b10011111111 p
b10011111111 '"
b10011111111 ,"
b10011111111 D"
b11111111 1
b11111111 V
b11111111 r
b1000 ,
b1000 Y
b1000 :"
1"
#103
b0 L
b0 h
b0 #"
b0 $"
b0 2
b0 U
b0 &"
b0 -"
b1100100 N
b1100100 i
b1100100 ("
b0 ."
b1100100 )"
b10011111111 9"
b0 3
b0 0"
b0 ="
b1100100 4
b1100100 +"
b1100100 ;"
#104
b100000000000000001001 7
b100000000000000001001 e
b100000000000000001001 k
b100000000000000001001 l
b1 P
b1 j
b1 |
b100000000000000001001 D
b100000000000000001001 _
b100000000000000001001 o
b100000000000000001001 3"
b100000100100000101010 B
b100000100100000101010 n
b100000100100000101010 C"
#105
b1100100 >
b1100100 R
b1100100 g
b100000110101000000100100 9
b100000110101000000100100 b
b100000110101000000100100 ~
b11111111 t
#108
0"
#114
b1010 -
b1010 X
b1010 6"
b11001 v
b1100100 .
b1100100 ?"
b1100100 F"
b1010 8"
b101000000100100 B"
b1100100 G"
b100100 <
b100100 x
b1010 5
b1010 5"
b11 /
b11 4"
b11 >"
b100 0
b100 <"
b101000000100100 ;
b101000000100100 ""
b100000000000000001001 1"
b100000000000000001001 }
b1001 ,
b1001 Y
b1001 :"
b0 1
b0 V
b0 r
b1100100 =
b1100100 S
b1100100 p
b1100100 '"
b1100100 ,"
b1100100 D"
b100000110101000000100100 :
b100000110101000000100100 c
b100000000000000001001 C
b100000000000000001001 `
b100000000000000001001 A"
b10011111111 Q"
b10000000000000000100100 E
b10000000000000000100100 !
b100000000000000001001 f
1"
#115
b11111111 L
b11111111 h
b11111111 #"
b11111111 $"
b11111111 2
b11111111 U
b11111111 &"
b11111111 -"
b10000000000 N
b10000000000 i
b10000000000 ("
b11111111 ."
b10000000000 )"
b1100100 9"
b11111111 3
b11111111 0"
b11111111 ="
b10000000000 4
b10000000000 +"
b10000000000 ;"
#116
b100000000000000001010 7
b100000000000000001010 e
b100000000000000001010 k
b100000000000000001010 l
b10 P
b10 j
b10 |
b100000000000000001010 D
b100000000000000001010 _
b100000000000000001010 o
b100000000000000001010 3"
b100000101000000101101 B
b100000101000000101101 n
b100000101000000101101 C"
#117
b10001001001010000000000000010 9
b10001001001010000000000000010 b
b10001001001010000000000000010 ~
b0 t
#118
b0 >
b0 R
b0 g
#120
0"
#126
b0 -
b0 X
b0 6"
b0 8"
b10 B"
b0 v
b0 .
b0 ?"
b0 F"
b100000000000000001010 1"
b100000000000000001010 }
b10 <
b10 x
0{
b100 6
b100 z
b0 5
b0 5"
b101 /
b101 4"
b101 >"
b1001 0
b1001 <"
b10 ;
b10 ""
b0 G"
b10000000000000000101000 E
b10000000000000000101000 !
b100000000000000001010 f
b1100100 R"
b100000000000000001010 C
b100000000000000001010 `
b100000000000000001010 A"
b10001001001010000000000000010 :
b10001001001010000000000000010 c
b0 =
b0 S
b0 p
b0 '"
b0 ,"
b0 D"
b11111111 1
b11111111 V
b11111111 r
b1010 ,
b1010 Y
b1010 :"
1"
#127
b1100100 L
b1100100 h
b1100100 #"
b1100100 $"
b1100100 2
b1100100 U
b1100100 &"
b1100100 -"
b1100100 N
b1100100 i
b1100100 ("
b1100100 ."
b1100100 )"
b0 9"
b1100100 3
b1100100 0"
b1100100 ="
b1100100 4
b1100100 +"
b1100100 ;"
#128
0@
b100000000000000001100 7
b100000000000000001100 e
b100000000000000001100 k
1'
b100000000000000001100 m
b0 l
1&
1+
b0 P
b0 j
b0 |
b100000000000000001011 D
b100000000000000001011 _
b100000000000000001011 o
b100000000000000001011 3"
1M
b100000000000000001100 B
b100000000000000001100 n
b100000000000000001100 C"
