Lab5/fm.vcd
$date
	Fri Sep 27 15:01:58 2019
$end
$version
	Icarus Verilog
$end
$timescale
	1s
$end
$scope module full_machine_test $end
$var wire 1 ! except $end
$var reg 1 " clk $end
$var reg 1 # done $end
$var reg 1 $ reset $end
$var integer 32 % i [31:0] $end
$scope module fm $end
$var wire 1 " clock $end
$var wire 1 $ reset $end
$var wire 1 & ze $end
$var wire 1 ' zero4 $end
$var wire 1 ( zero3 $end
$var wire 1 ) zero2 $end
$var wire 1 * zero1 $end
$var wire 1 + writeenable $end
$var wire 1 , word_we $end
$var wire 32 - slt_selected [31:0] $end
$var wire 1 . slt $end
$var wire 32 / signExtended [31:0] $end
$var wire 5 0 rtaddr [4:0] $end
$var wire 32 1 rtData [31:0] $end
$var wire 5 2 rsaddr [4:0] $end
$var wire 32 3 rsData [31:0] $end
$var wire 5 4 rdaddr [4:0] $end
$var wire 1 5 rd_src $end
$var wire 32 6 rdData [31:0] $end
$var wire 1 7 of4 $end
$var wire 1 8 of3 $end
$var wire 1 9 of2 $end
$var wire 1 : of1 $end
$var wire 32 ; normal_PC [31:0] $end
$var wire 32 < nextPC [31:0] $end
$var wire 1 = neg4 $end
$var wire 1 > neg3 $end
$var wire 1 ? neg2 $end
$var wire 1 @ neg1 $end
$var wire 1 A mem_read $end
$var wire 32 B lui_selected [31:0] $end
$var wire 1 C lui $end
$var wire 32 D loaded [31:0] $end
$var wire 32 E inst [31:0] $end
$var wire 1 ! except $end
$var wire 32 F data_out [31:0] $end
$var wire 32 G data [31:0] $end
$var wire 2 H control_type [1:0] $end
$var wire 1 I byte_we $end
$var wire 8 J byte_selected [7:0] $end
$var wire 1 K byte_load $end
$var wire 32 L branch_offset [31:0] $end
$var wire 32 M branch [31:0] $end
$var wire 1 N alu_src2 $end
$var wire 32 O alu_out [31:0] $end
$var wire 3 P alu_op [2:0] $end
$var wire 32 Q addm_out [31:0] $end
$var wire 1 R addm $end
$var wire 32 S PC [31:0] $end
$var wire 32 T B_data [31:0] $end
$scope module ALU_OUT $end
$var wire 1 ? negative $end
$var wire 33 U outE [32:0] $end
$var wire 1 9 overflow $end
$var wire 1 ) zero $end
$var wire 32 V out [31:0] $end
$var wire 33 W inBE [32:0] $end
$var wire 32 X inB [31:0] $end
$var wire 33 Y inAE [32:0] $end
$var wire 32 Z inA [31:0] $end
$var wire 3 [ control [2:0] $end
$upscope $end
$scope module ALU_PC $end
$var wire 3 \ control [2:0] $end
$var wire 32 ] inB [31:0] $end
$var wire 1 @ negative $end
$var wire 33 ^ outE [32:0] $end
$var wire 1 : overflow $end
$var wire 1 * zero $end
$var wire 32 _ out [31:0] $end
$var wire 33 ` inBE [32:0] $end
$var wire 33 a inAE [32:0] $end
$var wire 32 b inA [31:0] $end
$upscope $end
$scope module Alu_addm $end
$var wire 3 c control [2:0] $end
$var wire 32 d inB [31:0] $end
$var wire 1 = negative $end
$var wire 33 e outE [32:0] $end
$var wire 1 7 overflow $end
$var wire 1 ' zero $end
$var wire 32 f out [31:0] $end
$var wire 33 g inBE [32:0] $end
$var wire 33 h inAE [32:0] $end
$var wire 32 i inA [31:0] $end
$upscope $end
$scope module Memory $end
$var wire 32 j addr [31:0] $end
$var wire 1 " clk $end
$var wire 32 k d_out [31:0] $end
$var wire 32 l data_out [31:0] $end
$var wire 1 $ reset $end
$var wire 1 m valid_address $end
$var wire 1 , word_we $end
$var wire 19 n index [18:0] $end
$var wire 32 o data_in [31:0] $end
$var wire 1 I byte_we $end
$var integer 32 p i [31:0] $end
$upscope $end
$scope module PC_reg $end
$var wire 1 " clk $end
$var wire 1 q enable $end
$var wire 1 $ reset $end
$var wire 32 r d [31:0] $end
$var reg 32 s q [31:0] $end
$upscope $end
$scope module addm_mux $end
$var wire 32 t B [31:0] $end
$var wire 32 u out [31:0] $end
$var wire 32 v temp1 [31:0] $end
$var wire 32 w temp2 [31:0] $end
$var wire 1 R sel $end
$var wire 32 x A [31:0] $end
$upscope $end
$scope module branch_alu $end
$var wire 3 y control [2:0] $end
$var wire 32 z inA [31:0] $end
$var wire 32 { inB [31:0] $end
$var wire 1 > negative $end
$var wire 33 | outE [32:0] $end
$var wire 1 8 overflow $end
$var wire 1 ( zero $end
$var wire 32 } out [31:0] $end
$var wire 33 ~ inBE [32:0] $end
$var wire 33 !" inAE [32:0] $end
$upscope $end
$scope module byte_load_mux $end
$var wire 32 "" A [31:0] $end
$var wire 32 #" B [31:0] $end
$var wire 32 $" out [31:0] $end
$var wire 32 %" temp1 [31:0] $end
$var wire 32 &" temp2 [31:0] $end
$var wire 1 K sel $end
$upscope $end
$scope module byte_mux $end
$var wire 8 '" A [7:0] $end
$var wire 8 (" B [7:0] $end
$var wire 8 )" C [7:0] $end
$var wire 8 *" D [7:0] $end
$var wire 2 +" sel [1:0] $end
$var wire 8 ," wCD [7:0] $end
$var wire 8 -" wAB [7:0] $end
$var wire 8 ." out [7:0] $end
$scope module mAB $end
$var wire 8 /" A [7:0] $end
$var wire 8 0" B [7:0] $end
$var wire 8 1" out [7:0] $end
$var wire 1 2" sel $end
$var wire 8 3" temp1 [7:0] $end
$var wire 8 4" temp2 [7:0] $end
$upscope $end
$scope module mCD $end
$var wire 8 5" A [7:0] $end
$var wire 8 6" B [7:0] $end
$var wire 8 7" out [7:0] $end
$var wire 1 8" sel $end
$var wire 8 9" temp1 [7:0] $end
$var wire 8 :" temp2 [7:0] $end
$upscope $end
$scope module mfinal $end
$var wire 8 ;" A [7:0] $end
$var wire 8 <" B [7:0] $end
$var wire 8 =" out [7:0] $end
$var wire 1 >" sel $end
$var wire 8 ?" temp1 [7:0] $end
$var wire 8 @" temp2 [7:0] $end
$upscope $end
$upscope $end
$scope module decoder $end
$var wire 1 A" ADD $end
$var wire 1 B" ADDM $end
$var wire 1 C" AND $end
$var wire 1 D" JR $end
$var wire 1 E" NOR $end
$var wire 1 F" OR $end
$var wire 1 G" SLT $end
$var wire 1 H" SUB $end
$var wire 1 I" XOR $end
$var wire 1 R addm $end
$var wire 1 N alu_src2 $end
$var wire 1 K byte_load $end
$var wire 1 I byte_we $end
$var wire 1 ! except $end
$var wire 6 J" funct [5:0] $end
$var wire 1 C lui $end
$var wire 1 A mem_read $end
$var wire 6 K" opcode [5:0] $end
$var wire 1 5 rd_src $end
$var wire 1 . slt $end
$var wire 1 , word_we $end
$var wire 1 + writeenable $end
$var wire 1 ) zero $end
$var wire 2 L" control_type [1:0] $end
$var wire 3 M" alu_op [2:0] $end
$var wire 1 N" XORI $end
$var wire 1 O" SW $end
$var wire 1 P" SB $end
$var wire 1 Q" ORI $end
$var wire 1 R" LW $end
$var wire 1 S" LUI $end
$var wire 1 T" LBU $end
$var wire 1 U" J $end
$var wire 1 V" BNE $end
$var wire 1 W" BEQ $end
$var wire 1 X" ANDI $end
$var wire 1 Y" ADDI $end
$upscope $end
$scope module im $end
$var wire 30 Z" addr [29:0] $end
$var wire 32 [" data [31:0] $end
$var reg 32 \" i [31:0] $end
$upscope $end
$scope module lui_mux $end
$var wire 32 ]" B [31:0] $end
$var wire 32 ^" out [31:0] $end
$var wire 1 C sel $end
$var wire 32 _" temp1 [31:0] $end
$var wire 32 `" temp2 [31:0] $end
$var wire 32 a" A [31:0] $end
$upscope $end
$scope module m2 $end
$var wire 5 b" A [4:0] $end
$var wire 5 c" B [4:0] $end
$var wire 5 d" out [4:0] $end
$var wire 1 5 sel $end
$var wire 5 e" temp1 [4:0] $end
$var wire 5 f" temp2 [4:0] $end
$upscope $end
$scope module m22 $end
$var wire 32 g" B [31:0] $end
$var wire 32 h" out [31:0] $end
$var wire 1 N sel $end
$var wire 32 i" temp1 [31:0] $end
$var wire 32 j" temp2 [31:0] $end
$var wire 32 k" A [31:0] $end
$upscope $end
$scope module mem_read_mux $end
$var wire 32 l" B [31:0] $end
$var wire 32 m" out [31:0] $end
$var wire 1 A sel $end
$var wire 32 n" temp1 [31:0] $end
$var wire 32 o" temp2 [31:0] $end
$var wire 32 p" A [31:0] $end
$upscope $end
$scope module mux_PC $end
$var wire 32 q" A [31:0] $end
$var wire 32 r" B [31:0] $end
$var wire 32 s" C [31:0] $end
$var wire 2 t" sel [1:0] $end
$var wire 32 u" wCD [31:0] $end
$var wire 32 v" wAB [31:0] $end
$var wire 32 w" out [31:0] $end
$var wire 32 x" D [31:0] $end
$scope module mAB $end
$var wire 32 y" A [31:0] $end
$var wire 32 z" B [31:0] $end
$var wire 32 {" out [31:0] $end
$var wire 1 |" sel $end
$var wire 32 }" temp1 [31:0] $end
$var wire 32 ~" temp2 [31:0] $end
$upscope $end
$scope module mCD $end
$var wire 32 !# A [31:0] $end
$var wire 32 "# out [31:0] $end
$var wire 1 ## sel $end
$var wire 32 $# temp1 [31:0] $end
$var wire 32 %# temp2 [31:0] $end
$var wire 32 &# B [31:0] $end
$upscope $end
$scope module mfinal $end
$var wire 32 '# A [31:0] $end
$var wire 32 (# B [31:0] $end
$var wire 32 )# out [31:0] $end
$var wire 1 *# sel $end
$var wire 32 +# temp1 [31:0] $end
$var wire 32 ,# temp2 [31:0] $end
$upscope $end
$upscope $end
$scope module rf $end
$var wire 1 " clock $end
$var wire 32 -# rdData [31:0] $end
$var wire 5 .# rdNum [4:0] $end
$var wire 1 + rdWriteEnable $end
$var wire 1 $ reset $end
$var wire 32 /# rsData [31:0] $end
$var wire 5 0# rsNum [4:0] $end
$var wire 32 1# rtData [31:0] $end
$var wire 5 2# rtNum [4:0] $end
$var integer 32 3# i [31:0] $end
$upscope $end
$scope module slt_mux $end
$var wire 32 4# A [31:0] $end
$var wire 32 5# B [31:0] $end
$var wire 32 6# out [31:0] $end
$var wire 1 . sel $end
$var wire 32 7# temp1 [31:0] $end
$var wire 32 8# temp2 [31:0] $end
$upscope $end
$upscope $end
$upscope $end
$scope module full_machine_test $end
$scope module fm $end
$scope module rf $end
$var reg 32 9# \r[0] [31:0] $end
$upscope $end
$upscope $end
$upscope $end
$scope module full_machine_test $end
$scope module fm $end
$scope module rf $end
$var reg 32 :# \r[1] [31:0] $end
$upscope $end
$upscope $end
$upscope $end
$scope module full_machine_test $end
$scope module fm $end
$scope module rf $end
$var reg 32 ;# \r[2] [31:0] $end
$upscope $end
$upscope $end
$upscope $end
$scope module full_machine_test $end
$scope module fm $end
$scope module rf $end
$var reg 32 <# \r[3] [31:0] $end
$upscope $end
$upscope $end
$upscope $end
$scope module full_machine_test $end
$scope module fm $end
$scope module rf $end
$var reg 32 =# \r[4] [31:0] $end
$upscope $end
$upscope $end
$upscope $end
$scope module full_machine_test $end
$scope module fm $end
$scope module rf $end
$var reg 32 ># \r[5] [31:0] $end
$upscope $end
$upscope $end
$upscope $end
$scope module full_machine_test $end
$scope module fm $end
$scope module rf $end
$var reg 32 ?# \r[6] [31:0] $end
$upscope $end
$upscope $end
$upscope $end
$scope module full_machine_test $end
$scope module fm $end
$scope module rf $end
$var reg 32 @# \r[7] [31:0] $end
$upscope $end
$upscope $end
$upscope $end
$scope module full_machine_test $end
$scope module fm $end
$scope module rf $end
$var reg 32 A# \r[8] [31:0] $end
$upscope $end
$upscope $end
$upscope $end
$scope module full_machine_test $end
$scope module fm $end
$scope module rf $end
$var reg 32 B# \r[9] [31:0] $end
$upscope $end
$upscope $end
$upscope $end
$scope module full_machine_test $end
$scope module fm $end
$scope module rf $end
$var reg 32 C# \r[10] [31:0] $end
$upscope $end
$upscope $end
$upscope $end
$scope module full_machine_test $end
$scope module fm $end
$scope module rf $end
$var reg 32 D# \r[11] [31:0] $end
$upscope $end
$upscope $end
$upscope $end
$scope module full_machine_test $end
$scope module fm $end
$scope module rf $end
$var reg 32 E# \r[12] [31:0] $end
$upscope $end
$upscope $end
$upscope $end
$scope module full_machine_test $end
$scope module fm $end
$scope module rf $end
$var reg 32 F# \r[13] [31:0] $end
$upscope $end
$upscope $end
$upscope $end
$scope module full_machine_test $end
$scope module fm $end
$scope module rf $end
$var reg 32 G# \r[14] [31:0] $end
$upscope $end
$upscope $end
$upscope $end
$scope module full_machine_test $end
$scope module fm $end
$scope module rf $end
$var reg 32 H# \r[15] [31:0] $end
$upscope $end
$upscope $end
$upscope $end
$scope module full_machine_test $end
$scope module fm $end
$scope module rf $end
$var reg 32 I# \r[16] [31:0] $end
$upscope $end
$upscope $end
$upscope $end
$scope module full_machine_test $end
$scope module fm $end
$scope module rf $end
$var reg 32 J# \r[17] [31:0] $end
$upscope $end
$upscope $end
$upscope $end
$scope module full_machine_test $end
$scope module fm $end
$scope module rf $end
$var reg 32 K# \r[18] [31:0] $end
$upscope $end
$upscope $end
$upscope $end
$scope module full_machine_test $end
$scope module fm $end
$scope module rf $end
$var reg 32 L# \r[19] [31:0] $end
$upscope $end
$upscope $end
$upscope $end
$scope module full_machine_test $end
$scope module fm $end
$scope module rf $end
$var reg 32 M# \r[20] [31:0] $end
$upscope $end
$upscope $end
$upscope $end
$scope module full_machine_test $end
$scope module fm $end
$scope module rf $end
$var reg 32 N# \r[21] [31:0] $end
$upscope $end
$upscope $end
$upscope $end
$scope module full_machine_test $end
$scope module fm $end
$scope module rf $end
$var reg 32 O# \r[22] [31:0] $end
$upscope $end
$upscope $end
$upscope $end
$scope module full_machine_test $end
$scope module fm $end
$scope module rf $end
$var reg 32 P# \r[23] [31:0] $end
$upscope $end
$upscope $end
$upscope $end
$scope module full_machine_test $end
$scope module fm $end
$scope module rf $end
$var reg 32 Q# \r[24] [31:0] $end
$upscope $end
$upscope $end
$upscope $end
$scope module full_machine_test $end
$scope module fm $end
$scope module rf $end
$var reg 32 R# \r[25] [31:0] $end
$upscope $end
$upscope $end
$upscope $end
$scope module full_machine_test $end
$scope module fm $end
$scope module rf $end
$var reg 32 S# \r[26] [31:0] $end
$upscope $end
$upscope $end
$upscope $end
$scope module full_machine_test $end
$scope module fm $end
$scope module rf $end
$var reg 32 T# \r[27] [31:0] $end
$upscope $end
$upscope $end
$upscope $end
$scope module full_machine_test $end
$scope module fm $end
$scope module rf $end
$var reg 32 U# \r[28] [31:0] $end
$upscope $end
$upscope $end
$upscope $end
$scope module full_machine_test $end
$scope module fm $end
$scope module rf $end
$var reg 32 V# \r[29] [31:0] $end
$upscope $end
$upscope $end
$upscope $end
$scope module full_machine_test $end
$scope module fm $end
$scope module rf $end
$var reg 32 W# \r[30] [31:0] $end
$upscope $end
$upscope $end
$upscope $end
$scope module full_machine_test $end
$scope module fm $end
$scope module rf $end
$var reg 32 X# \r[31] [31:0] $end
$upscope $end
$upscope $end
$upscope $end
$enddefinitions $end
#0
$dumpvars
b0 X#
b0 W#
b0 V#
b0 U#
b0 T#
b0 S#
b0 R#
b0 Q#
b0 P#
b0 O#
b0 N#
b0 M#
b0 L#
b0 K#
b0 J#
b0 I#
b0 H#
b0 G#
b0 F#
b0 E#
b0 D#
b0 C#
b0 B#
b0 A#
b0 @#
b0 ?#
b0 >#
b0 =#
b0 <#
b0 ;#
b0 :#
b0 9#
b0 8#
b0 7#
b0 6#
b0 5#
b0 4#
b100000 3#
b10 2#
b0 1#
b0 0#
b0 /#
b10 .#
b10000000000010000000000000000 -#
b0 ,#
b100 +#
0*#
b100 )#
b10000100000000000100 (#
b100 '#
b0 &#
b0 %#
b10000100000000000100 $#
0##
b10000100000000000100 "#
b10000100000000000100 !#
b0 ~"
b100 }"
0|"
b100 {"
b100000000001000 z"
b100 y"
b0 x"
b100 w"
b100 v"
b10000100000000000100 u"
b0 t"
b10000100000000000100 s"
b100000000001000 r"
b100 q"
b0 p"
b0 o"
b0 n"
b0 m"
b11101111 l"
b0 k"
b1000000000001 j"
b0 i"
b1000000000001 h"
b1000000000001 g"
b10 f"
b0 e"
b10 d"
b10 c"
b10 b"
b0 a"
b10000000000010000000000000000 `"
b0 _"
b10000000000010000000000000000 ^"
b10000000000010000000000000000 ]"
b100000000 \"
b111100000000100001000000000001 ["
b0 Z"
0Y"
0X"
0W"
0V"
0U"
0T"
1S"
0R"
0Q"
0P"
0O"
0N"
b0 M"
b0 L"
b1111 K"
b1 J"
0I"
0H"
0G"
0F"
0E"
0D"
0C"
0B"
0A"
b0 @"
b11101111 ?"
0>"
b11101111 ="
b10101101 <"
b11101111 ;"
b0 :"
b10101101 9"
08"
b10101101 7"
b11011110 6"
b10101101 5"
b0 4"
b11101111 3"
02"
b11101111 1"
b10111110 0"
b11101111 /"
b11101111 ."
b11101111 -"
b10101101 ,"
b0 +"
b11011110 *"
b10101101 )"
b10111110 ("
b11101111 '"
b0 &"
b11011110101011011011111011101111 %"
b11011110101011011011111011101111 $"
b11101111 #"
b11011110101011011011111011101111 ""
b100 !"
b100000000000100 ~
b100000000001000 }
b100000000001000 |
b100000000000100 {
b100 z
b10 y
b10000000000010000000000000000 x
b0 w
b10000000000010000000000000000 v
b10000000000010000000000000000 u
b11101111 t
b0 s
b100 r
1q
b1000000000000000000 p
b0 o
b0 n
0m
b11011110101011011011111011101111 l
b11011110101011011011111011101111 k
b0 j
b0 i
b0 h
b11101111 g
b11101111 f
b11101111 e
b11101111 d
b10 c
b0 b
b0 a
b100 `
b100 _
b100 ^
b100 ]
b10 \
b0 [
b0 Z
b0 Y
b1000000000001 X
b1000000000001 W
b0 V
b0 U
b1000000000001 T
b0 S
0R
b11101111 Q
b0 P
b0 O
1N
b100000000001000 M
b100000000000100 L
0K
b11101111 J
0I
b0 H
b0 G
b11011110101011011011111011101111 F
b111100000000100001000000000001 E
b11011110101011011011111011101111 D
1C
b10000000000010000000000000000 B
0A
0@
0?
0>
0=
b100 <
b100 ;
0:
09
08
07
b10000000000010000000000000000 6
15
b10 4
b0 3
b0 2
b0 1
b10 0
b1000000000001 /
0.
b0 -
0,
1+
0*
1)
0(
0'
0&
b100000 %
1$
0#
0"
0!
$end
#3
0$
#5
b1000 <
b1000 r
b1000 w"
b1000 )#
b111000 M
b111000 }
b111000 r"
b111000 z"
b1000 +#
b111000 |
b11101111 6
b11101111 u
b11101111 -#
b11101111 _"
b1000 v"
b1000 {"
b1000 '#
b11101111 v
b11101111 G
b11101111 a"
b11101111 m"
b1000 }"
b1000011000000000000110000 u"
b1000011000000000000110000 "#
b1000011000000000000110000 (#
b1100 W
b1100 T
b1100 X
b1100 h"
b11 4
b11 d"
b11 .#
b11101111 B
b11101111 x
b11101111 ^"
b11101111 o"
b1000 !"
b1000 ;
b1000 _
b1000 z
b1000 q"
b1000 y"
b1000011000000000000110000 $#
b110000 ~
b110000 L
b110000 {
b1100 j"
b11 f"
b0 `"
1A
b11101111 Q
b11101111 f
b11101111 t
b1000 ^
b1000011000000000000110000 s"
b1000011000000000000110000 !#
b11000000000000000000 ]"
b1100 /
b1100 g"
b11 0
b11 2#
b10000000000010000000000000000 Y
b10000000000010000000000000000 3
b10000000000010000000000000000 Z
b10000000000010000000000000000 x"
b10000000000010000000000000000 &#
b10000000000010000000000000000 /#
b10 2
b10 0#
b11 c"
b0 b"
b1100 J"
0C
0S"
1R"
b100011 K"
b11101111 e
b10001100010000110000000000001100 E
b10001100010000110000000000001100 ["
b1 Z"
b100 a
b100 S
b100 b
b100 s
b10000000000010000000000000000 ;#
b0 h
b0 1
b0 i
b0 o
b0 k"
b0 1#
1"
#10
0"
#15
b11011110 @"
1>"
b11011110 g
b11011110 d
b11011110 #"
b11011110 l"
b11011110 J
b11011110 ."
b11011110 ="
b0 n"
b0 ?"
1+
b0 -
b0 p"
b0 6#
b10111110 -"
b10111110 1"
b10111110 ;"
b11011110 ,"
b11011110 7"
b11011110 <"
0)
b0 8#
b0 3"
b10111110 4"
b0 9"
b11011110 :"
b0 5#
0?
12"
18"
b1000 e"
b111011 n
b11 +"
09
05
0N
b11101111 O
b11101111 V
b11101111 j
b11101111 4#
b11101111 U
b0 6
b0 u
b0 -#
0!
b0 v
b1100 <
b1100 r
b1100 w"
b1100 )#
b10000000010110100 M
b10000000010110100 }
b10000000010110100 r"
b10000000010110100 z"
b11 P
b11 [
b11 M"
b0 B
b0 x
b0 ^"
b1100 +#
b10000000010110100 |
b0 _"
b1100 v"
b1100 {"
b1100 '#
b0 G
b0 a"
b0 m"
b1100 }"
b1100000010000000010101000 u"
b1100000010000000010101000 "#
b1100000010000000010101000 (#
b0 W
b0 T
b0 X
b0 h"
b1000 4
b1000 d"
b1000 .#
b0 o"
b11011110 Q
b11011110 f
b11011110 t
b1100 !"
b1100 ;
b1100 _
b1100 z
b1100 q"
b1100 y"
b1100000010000000010101000 $#
b10000000010101000 ~
b10000000010101000 L
b10000000010101000 {
b0 j"
b0 f"
1.
1G"
0A
b11011110 e
b1100 ^
b1100000010000000010101000 s"
b1100000010000000010101000 !#
b1000000001010100000000000000000 ]"
b100000000101010 /
b100000000101010 g"
b0 0
b0 2#
b11101111 Y
b11101111 3
b11101111 Z
b11101111 x"
b11101111 &#
b11101111 /#
b11 2
b11 0#
b0 c"
b1000 b"
b101010 J"
0R"
b0 K"
b11000000100000000101010 E
b11000000100000000101010 ["
b10 Z"
b11101111 <#
b0 h
b0 1
b0 i
b0 o
b0 k"
b0 1#
b1000 a
b1000 S
b1000 b
b1000 s
1"
#20
0"
#25
b1 Q
b1 f
b1 t
b1 e
b1 -"
b1 1"
b1 ;"
b0 ,"
b0 7"
b0 <"
b1 g
b1 d
b1 #"
b1 l"
b1 J
b1 ."
b1 ="
b1 D
b1 $"
b1 3"
b0 4"
b0 :"
b1 ?"
b0 @"
b10000 <
b10000 r
b10000 w"
b10000 )#
b10010000010111000 M
b10010000010111000 }
b10010000010111000 r"
b10010000010111000 z"
b1 %"
b0 *"
b0 6"
b0 )"
b0 5"
b0 ("
b0 0"
b1 '"
b1 /"
02"
08"
0>"
b10000 +#
b10010000010111000 |
1m
b1 F
b1 l
b1 ""
b1 k
b100000000000000 n
b0 +"
b10000 v"
b10000 {"
b10000 '#
b10000000000010000000000000000 O
b10000000000010000000000000000 V
b10000000000010000000000000000 j
b10000000000010000000000000000 4#
b10000 }"
b1000000010010000010101000 u"
b1000000010010000010101000 "#
b1000000010010000010101000 (#
b10000000000010000000000000000 U
b1001 4
b1001 d"
b1001 .#
b10000 !"
b10000 ;
b10000 _
b10000 z
b10000 q"
b10000 y"
b1000000010010000010101000 $#
b10010000010101000 ~
b10010000010101000 L
b10010000010101000 {
b1001 e"
b10000 ^
b1000000010010000010101000 s"
b1000000010010000010101000 !#
b1001000001010100000000000000000 ]"
b100100000101010 /
b100100000101010 g"
b10000000000010000000000000000 Y
b10000000000010000000000000000 3
b10000000000010000000000000000 Z
b10000000000010000000000000000 x"
b10000000000010000000000000000 &#
b10000000000010000000000000000 /#
b10 2
b10 0#
b1001 b"
b10000000100100000101010 E
b10000000100100000101010 ["
b11 Z"
b1100 a
b1100 S
b1100 b
b1100 s
b0 A#
1"
#30
0"
#35
b1 6
b1 u
b1 -#
b1 v
b1 B
b1 x
b1 ^"
b1 _"
b1 G
b1 a"
b1 m"
b1 n"
b1 -
b1 p"
b1 6#
b11101111 g
b11101111 d
b11101111 #"
b11101111 l"
b11101111 J
b11101111 ."
b11101111 ="
b1 8#
b11101111 ?"
b1 5#
1?
b10101101 ,"
b10101101 7"
b10101101 <"
b11101111 -"
b11101111 1"
b11101111 ;"
09
0)
b11011110101011011011111011101111 D
b11011110101011011011111011101111 $"
b10101101 9"
b11101111 3"
b10100 <
b10100 r
b10100 w"
b10100 )#
b10100000010111100 M
b10100000010111100 }
b10100000010111100 r"
b10100000010111100 z"
b11011110101011011011111011101111 %"
b11011110 *"
b11011110 6"
b10101101 )"
b10101101 5"
b10111110 ("
b10111110 0"
b11101111 '"
b11101111 /"
b10100 +#
b10100000010111100 |
b10000000000010000000011101111 Q
b10000000000010000000011101111 f
b10000000000010000000011101111 t
0m
b11011110101011011011111011101111 F
b11011110101011011011111011101111 l
b11011110101011011011111011101111 ""
b11011110101011011011111011101111 k
b111100000000000000 n
b10100 v"
b10100 {"
b10100 '#
b10000000000010000000011101111 e
b11101111111111110000000000000000 O
b11101111111111110000000000000000 V
b11101111111111110000000000000000 j
b11101111111111110000000000000000 4#
b10100 }"
b10010100000010101000 u"
b10010100000010101000 "#
b10010100000010101000 (#
b10000000000010000000000000000 W
b10000000000010000000000000000 T
b10000000000010000000000000000 X
b10000000000010000000000000000 h"
b111101111111111110000000000000000 U
b1010 4
b1010 d"
b1010 .#
b10100 !"
b10100 ;
b10100 _
b10100 z
b10100 q"
b10100 y"
b10010100000010101000 $#
b10100000010101000 ~
b10100000010101000 L
b10100000010101000 {
b10000000000010000000000000000 i"
b1010 e"
b10100 ^
b10010100000010101000 s"
b10010100000010101000 !#
b1010000001010100000000000000000 ]"
b101000000101010 /
b101000000101010 g"
b10000000000010000000000000000 h
b10000000000010000000000000000 1
b10000000000010000000000000000 i
b10000000000010000000000000000 o
b10000000000010000000000000000 k"
b10000000000010000000000000000 1#
b10 0
b10 2#
b0 Y
b0 3
b0 Z
b0 x"
b0 &#
b0 /#
b0 2
b0 0#
b10 c"
b1010 b"
b100101000000101010 E
b100101000000101010 ["
b100 Z"
b0 B#
b10000 a
b10000 S
b10000 b
b10000 s
1"
#40
0"
#45
b0 6
b0 u
b0 -#
b0 v
b10111110 g
b10111110 d
b10111110 #"
b10111110 l"
b10111110 J
b10111110 ."
b10111110 ="
b0 B
b0 x
b0 ^"
b10111110 ?"
b0 _"
b10111110 -"
b10111110 1"
b10111110 ;"
b11011110 ,"
b11011110 7"
b11011110 <"
b0 G
b0 a"
b0 m"
b0 3"
b10111110 4"
b0 9"
b11011110 :"
b0 n"
12"
18"
b0 -
b0 p"
b0 6#
1m
b1 +"
0)
b0 8#
b11000 <
b11000 r
b11000 w"
b11000 )#
b10110000011000000 M
b10110000011000000 }
b10110000011000000 r"
b10110000011000000 z"
b0 5#
0?
b11000 +#
b10110000011000000 |
b110101101 Q
b110101101 f
b110101101 t
b11111111000100 n
09
b11000 v"
b11000 {"
b11000 '#
b110101101 e
b10000000000001111111100010001 O
b10000000000001111111100010001 V
b10000000000001111111100010001 j
b10000000000001111111100010001 4#
b11000 }"
b1000011010110000010101000 u"
b1000011010110000010101000 "#
b1000011010110000010101000 (#
b11101111 W
b11101111 T
b11101111 X
b11101111 h"
b10000000000001111111100010001 U
b1011 4
b1011 d"
b1011 .#
b11000 !"
b11000 ;
b11000 _
b11000 z
b11000 q"
b11000 y"
b1000011010110000010101000 $#
b10110000010101000 ~
b10110000010101000 L
b10110000010101000 {
b11101111 i"
b1011 e"
b11000 ^
b1000011010110000010101000 s"
b1000011010110000010101000 !#
b1011000001010100000000000000000 ]"
b101100000101010 /
b101100000101010 g"
b11101111 h
b11101111 1
b11101111 i
b11101111 o
b11101111 k"
b11101111 1#
b11 0
b11 2#
b10000000000010000000000000000 Y
b10000000000010000000000000000 3
b10000000000010000000000000000 Z
b10000000000010000000000000000 x"
b10000000000010000000000000000 &#
b10000000000010000000000000000 /#
b10 2
b10 0#
b11 c"
b1011 b"
b10000110101100000101010 E
b10000110101100000101010 ["
b101 Z"
b10100 a
b10100 S
b10100 b
b10100 s
b1 C#
1"
#50
0"
#55
b11101111 g
b11101111 d
b11101111 #"
b11101111 l"
b11101111 J
b11101111 ."
b11101111 ="
b11101111 ?"
b11101111 -"
b11101111 1"
b11101111 ;"
b10101101 ,"
b10101101 7"
b10101101 <"
b0 6
b0 u
b0 -#
1)
b11101111 3"
b0 4"
b10101101 9"
b0 :"
b0 v
0!
02"
08"
0+
b0 B
b0 x
b0 ^"
b0 +"
b0 _"
b11100 <
b11100 r
b11100 w"
b11100 )#
b1010100 M
b1010100 }
b1010100 r"
b1010100 z"
b0 5#
0?
b0 ~"
b0 G
b0 a"
b0 m"
b11 P
b11 [
b11 M"
b11100 +#
b1010100 |
b11101111 Q
b11101111 f
b11101111 t
0m
b0 n
09
0|"
0##
b0 n"
b11100 v"
b11100 {"
b11100 '#
b11101111 e
b0 O
b0 V
b0 j
b0 4#
b0 H
b0 L"
b0 t"
b0 -
b0 p"
b0 6#
b11100 }"
b100100000000000000000111000 u"
b100100000000000000000111000 "#
b100100000000000000000111000 (#
b0 W
b0 T
b0 X
b0 h"
b0 U
b0 4
b0 d"
b0 .#
b0 7#
b11100 !"
b11100 ;
b11100 _
b11100 z
b11100 q"
b11100 y"
b100100000000000000000111000 $#
b111000 ~
b111000 L
b111000 {
b0 i"
b0 e"
0.
0G"
b11100 ^
b100100000000000000000111000 s"
b100100000000000000000111000 !#
b11100000000000000000 ]"
b1110 /
b1110 g"
b0 h
b0 1
b0 i
b0 o
b0 k"
b0 1#
b0 0
b0 2#
b0 Y
b0 3
b0 Z
b0 x"
b0 &#
b0 /#
b1001 2
b1001 0#
b0 c"
b0 b"
b1110 J"
1V"
b101 K"
b10101001000000000000000001110 E
b10101001000000000000000001110 ["
b110 Z"
b0 D#
b11000 a
b11000 S
b11000 b
b11000 s
1"
#60
0"
#65
b1011100 <
b1011100 r
b1011100 w"
b1011100 )#
b1011100 M
b1011100 }
b1011100 r"
b1011100 z"
b1011100 ~"
b1011100 +#
b1011100 |
1|"
1##
b1011100 v"
b1011100 {"
b1011100 '#
b1 H
b1 L"
b1 t"
b0 }"
b0 u"
b0 "#
b0 (#
b100000 !"
b100000 ;
b100000 _
b100000 z
b100000 q"
b100000 y"
b0 $#
b111100 ~
b111100 L
b111100 {
b100000 ^
b101101000000000000000111100 s"
b101101000000000000000111100 !#
b11110000000000000000 ]"
b1111 /
b1111 g"
b1000 0
b1000 2#
b1011 2
b1011 0#
b1000 c"
b1111 J"
1W"
0V"
b100 K"
b10001011010000000000000001111 E
b10001011010000000000000001111 ["
b111 Z"
b11100 a
b11100 S
b11100 b
b11100 s
1"
#70
0"
